
@startuml actionDiag

start

:Ajout des images de fonds;
note right
	Soit prise de photos à l'aide de la
	caméra, ou soit téléchargement
	de fichier .jpg déjà existant
end note

:Analyse des images de fonds;
note right
	Traitement des images de fond
end note


start

repeat
	if (Prise de photo) then (Caméra)
	:Connection à la caméra;
	:Prise d'une photo;
	else (Téléchargement\n   photo)
	:Ouverture de l'explorateur\n            des fichiers;
	:Sélection d'une photo;
	endif

	:Analyse de l'image;
	note right
		Détection et analyse des smarthies
	end note
repeat while (Prise de photo)

stop

@enduml